État 70 conflits: 1 réduction/réduction
État 127 conflits: 9 décalage/réduction
État 128 conflits: 9 décalage/réduction
État 129 conflits: 9 décalage/réduction
État 130 conflits: 9 décalage/réduction
État 131 conflits: 9 décalage/réduction
État 132 conflits: 5 décalage/réduction
État 133 conflits: 5 décalage/réduction
État 134 conflits: 5 décalage/réduction
État 135 conflits: 5 décalage/réduction


Grammaire

    0 $accept: prog $end

    1 prog: CLASS className L_BRACE classVarDecList subroutineDecList R_BRACE

    2 classVarDec: STATIC type varNameList SEMICOLON
    3            | FIELD type varNameList SEMICOLON

    4 classVarDecList: %empty
    5                | classVarDecList classVarDec

    6 subroutineDecList: %empty
    7                  | subroutineDecList subroutineDec

    8 subroutineDec: funKeyword typeOrVoid subroutineName L_PARENTHESIS R_PARENTHESIS L_BRACE subroutineBody R_BRACE
    9              | funKeyword typeOrVoid subroutineName L_PARENTHESIS parameterList R_PARENTHESIS L_BRACE subroutineBody R_BRACE

   10 funKeyword: CONSTRUCTOR
   11           | FUNCTION
   12           | METHOD

   13 typeOrVoid: VOID
   14           | type

   15 className: ID

   16 parameterList: parameterList COMMA parameter
   17              | parameter

   18 subroutineBody: varDec statements

   19 parameter: type varName

   20 varDec: %empty
   21       | varDec varDecSolo

   22 varDecSolo: VAR type varNameList SEMICOLON

   23 varNameList: varName
   24            | varNameList COMMA varName

   25 varName: ID

   26 subroutineName: ID

   27 type: INT
   28     | CHAR
   29     | BOOLEAN
   30     | className

   31 statements: %empty
   32           | statements statement

   33 statement: letStatement
   34          | ifStatement
   35          | whileStatement
   36          | doStatement
   37          | returnStatement

   38 letStatement: LET varName EQUAL expression SEMICOLON
   39             | LET varName L_BRACKET expression R_BRACKET EQUAL expression SEMICOLON

   40 ifStatement: IF L_PARENTHESIS expression R_PARENTHESIS L_BRACE statements R_BRACE
   41            | IF L_PARENTHESIS expression R_PARENTHESIS L_BRACE statements R_BRACE ELSE L_BRACE statements R_BRACE

   42 whileStatement: WHILE L_PARENTHESIS expression R_PARENTHESIS L_BRACE statements R_BRACE

   43 doStatement: DO subroutineCall SEMICOLON

   44 returnStatement: RETURN SEMICOLON
   45                | RETURN expression SEMICOLON

   46 expression: term
   47           | binop

   48 binop: expression PLUS expression
   49      | expression MINUS expression
   50      | expression TIMES expression
   51      | expression DIVIDED expression
   52      | expression AMPERSAND expression
   53      | expression PIPE expression
   54      | expression LT expression
   55      | expression GT expression
   56      | expression EQUAL expression

   57 term: INTEGER
   58     | STRING
   59     | keywordConstant
   60     | varName
   61     | varName L_BRACKET expression R_BRACKET
   62     | subroutineCall
   63     | L_PARENTHESIS expression R_PARENTHESIS
   64     | unaryOp term

   65 subroutineCall: subroutineName L_PARENTHESIS expressionList R_PARENTHESIS
   66               | className PERIOD subroutineName L_PARENTHESIS expressionList R_PARENTHESIS
   67               | varName PERIOD subroutineName L_PARENTHESIS expressionList R_PARENTHESIS

   68 expressionList: %empty
   69               | expressionListBis

   70 expressionListBis: expression
   71                  | expressionListBis COMMA expression

   72 unaryOp: MINUS
   73        | TILDE

   74 keywordConstant: TRUE
   75                | FALSE
   76                | NULL_
   77                | THIS


Terminaux, suivis des règles où ils apparaissent

$end (0) 0
error (256)
CLASS (258) 1
CONSTRUCTOR (259) 10
FUNCTION (260) 11
METHOD (261) 12
FIELD (262) 3
VAR (263) 22
INT (264) 27
CHAR (265) 28
BOOLEAN (266) 29
VOID (267) 13
STATIC (268) 2
TRUE (269) 74
FALSE (270) 75
NULL_ (271) 76
THIS (272) 77
LET (273) 38 39
DO (274) 43
IF (275) 40 41
ELSE (276) 41
WHILE (277) 42
RETURN (278) 44 45
L_BRACKET (279) 39 61
R_BRACKET (280) 39 61
L_PARENTHESIS (281) 8 9 40 41 42 63 65 66 67
R_PARENTHESIS (282) 8 9 40 41 42 63 65 66 67
L_BRACE (283) 1 8 9 40 41 42
R_BRACE (284) 1 8 9 40 41 42
PERIOD (285) 66 67
COMMA (286) 16 24 71
SEMICOLON (287) 2 3 22 38 39 43 44 45
AMPERSAND (288) 52
PIPE (289) 53
LT (290) 54
GT (291) 55
EQUAL (292) 38 39 56
TILDE (293) 73
ID (294) 15 25 26
STRING (295) 58
INTEGER (296) 57
PLUS (297) 48
MINUS (298) 49 72
TIMES (299) 50
DIVIDED (300) 51


Non-terminaux, suivis des règles où ils apparaissent

$accept (46)
    à gauche: 0
prog (47)
    à gauche: 1, à droite: 0
classVarDec (48)
    à gauche: 2 3, à droite: 5
classVarDecList (49)
    à gauche: 4 5, à droite: 1 5
subroutineDecList (50)
    à gauche: 6 7, à droite: 1 7
subroutineDec (51)
    à gauche: 8 9, à droite: 7
funKeyword (52)
    à gauche: 10 11 12, à droite: 8 9
typeOrVoid (53)
    à gauche: 13 14, à droite: 8 9
className (54)
    à gauche: 15, à droite: 1 30 66
parameterList (55)
    à gauche: 16 17, à droite: 9 16
subroutineBody (56)
    à gauche: 18, à droite: 8 9
parameter (57)
    à gauche: 19, à droite: 16 17
varDec (58)
    à gauche: 20 21, à droite: 18 21
varDecSolo (59)
    à gauche: 22, à droite: 21
varNameList (60)
    à gauche: 23 24, à droite: 2 3 22 24
varName (61)
    à gauche: 25, à droite: 19 23 24 38 39 60 61 67
subroutineName (62)
    à gauche: 26, à droite: 8 9 65 66 67
type (63)
    à gauche: 27 28 29 30, à droite: 2 3 14 19 22
statements (64)
    à gauche: 31 32, à droite: 18 32 40 41 42
statement (65)
    à gauche: 33 34 35 36 37, à droite: 32
letStatement (66)
    à gauche: 38 39, à droite: 33
ifStatement (67)
    à gauche: 40 41, à droite: 34
whileStatement (68)
    à gauche: 42, à droite: 35
doStatement (69)
    à gauche: 43, à droite: 36
returnStatement (70)
    à gauche: 44 45, à droite: 37
expression (71)
    à gauche: 46 47, à droite: 38 39 40 41 42 45 48 49 50 51 52 53
    54 55 56 61 63 70 71
binop (72)
    à gauche: 48 49 50 51 52 53 54 55 56, à droite: 47
term (73)
    à gauche: 57 58 59 60 61 62 63 64, à droite: 46 64
subroutineCall (74)
    à gauche: 65 66 67, à droite: 43 62
expressionList (75)
    à gauche: 68 69, à droite: 65 66 67
expressionListBis (76)
    à gauche: 70 71, à droite: 69 71
unaryOp (77)
    à gauche: 72 73, à droite: 64
keywordConstant (78)
    à gauche: 74 75 76 77, à droite: 59


État 0

    0 $accept: . prog $end

    CLASS  décalage et aller à l'état 1

    prog  aller à l'état 2


État 1

    1 prog: CLASS . className L_BRACE classVarDecList subroutineDecList R_BRACE

    ID  décalage et aller à l'état 3

    className  aller à l'état 4


État 2

    0 $accept: prog . $end

    $end  décalage et aller à l'état 5


État 3

   15 className: ID .

    $défaut  réduction par utilisation de la règle 15 (className)


État 4

    1 prog: CLASS className . L_BRACE classVarDecList subroutineDecList R_BRACE

    L_BRACE  décalage et aller à l'état 6


État 5

    0 $accept: prog $end .

    $défaut  accepter


État 6

    1 prog: CLASS className L_BRACE . classVarDecList subroutineDecList R_BRACE

    $défaut  réduction par utilisation de la règle 4 (classVarDecList)

    classVarDecList  aller à l'état 7


État 7

    1 prog: CLASS className L_BRACE classVarDecList . subroutineDecList R_BRACE
    5 classVarDecList: classVarDecList . classVarDec

    FIELD   décalage et aller à l'état 8
    STATIC  décalage et aller à l'état 9

    $défaut  réduction par utilisation de la règle 6 (subroutineDecList)

    classVarDec        aller à l'état 10
    subroutineDecList  aller à l'état 11


État 8

    3 classVarDec: FIELD . type varNameList SEMICOLON

    INT      décalage et aller à l'état 12
    CHAR     décalage et aller à l'état 13
    BOOLEAN  décalage et aller à l'état 14
    ID       décalage et aller à l'état 3

    className  aller à l'état 15
    type       aller à l'état 16


État 9

    2 classVarDec: STATIC . type varNameList SEMICOLON

    INT      décalage et aller à l'état 12
    CHAR     décalage et aller à l'état 13
    BOOLEAN  décalage et aller à l'état 14
    ID       décalage et aller à l'état 3

    className  aller à l'état 15
    type       aller à l'état 17


État 10

    5 classVarDecList: classVarDecList classVarDec .

    $défaut  réduction par utilisation de la règle 5 (classVarDecList)


État 11

    1 prog: CLASS className L_BRACE classVarDecList subroutineDecList . R_BRACE
    7 subroutineDecList: subroutineDecList . subroutineDec

    CONSTRUCTOR  décalage et aller à l'état 18
    FUNCTION     décalage et aller à l'état 19
    METHOD       décalage et aller à l'état 20
    R_BRACE      décalage et aller à l'état 21

    subroutineDec  aller à l'état 22
    funKeyword     aller à l'état 23


État 12

   27 type: INT .

    $défaut  réduction par utilisation de la règle 27 (type)


État 13

   28 type: CHAR .

    $défaut  réduction par utilisation de la règle 28 (type)


État 14

   29 type: BOOLEAN .

    $défaut  réduction par utilisation de la règle 29 (type)


État 15

   30 type: className .

    $défaut  réduction par utilisation de la règle 30 (type)


État 16

    3 classVarDec: FIELD type . varNameList SEMICOLON

    ID  décalage et aller à l'état 24

    varNameList  aller à l'état 25
    varName      aller à l'état 26


État 17

    2 classVarDec: STATIC type . varNameList SEMICOLON

    ID  décalage et aller à l'état 24

    varNameList  aller à l'état 27
    varName      aller à l'état 26


État 18

   10 funKeyword: CONSTRUCTOR .

    $défaut  réduction par utilisation de la règle 10 (funKeyword)


État 19

   11 funKeyword: FUNCTION .

    $défaut  réduction par utilisation de la règle 11 (funKeyword)


État 20

   12 funKeyword: METHOD .

    $défaut  réduction par utilisation de la règle 12 (funKeyword)


État 21

    1 prog: CLASS className L_BRACE classVarDecList subroutineDecList R_BRACE .

    $défaut  réduction par utilisation de la règle 1 (prog)


État 22

    7 subroutineDecList: subroutineDecList subroutineDec .

    $défaut  réduction par utilisation de la règle 7 (subroutineDecList)


État 23

    8 subroutineDec: funKeyword . typeOrVoid subroutineName L_PARENTHESIS R_PARENTHESIS L_BRACE subroutineBody R_BRACE
    9              | funKeyword . typeOrVoid subroutineName L_PARENTHESIS parameterList R_PARENTHESIS L_BRACE subroutineBody R_BRACE

    INT      décalage et aller à l'état 12
    CHAR     décalage et aller à l'état 13
    BOOLEAN  décalage et aller à l'état 14
    VOID     décalage et aller à l'état 28
    ID       décalage et aller à l'état 3

    typeOrVoid  aller à l'état 29
    className   aller à l'état 15
    type        aller à l'état 30


État 24

   25 varName: ID .

    $défaut  réduction par utilisation de la règle 25 (varName)


État 25

    3 classVarDec: FIELD type varNameList . SEMICOLON
   24 varNameList: varNameList . COMMA varName

    COMMA      décalage et aller à l'état 31
    SEMICOLON  décalage et aller à l'état 32


État 26

   23 varNameList: varName .

    $défaut  réduction par utilisation de la règle 23 (varNameList)


État 27

    2 classVarDec: STATIC type varNameList . SEMICOLON
   24 varNameList: varNameList . COMMA varName

    COMMA      décalage et aller à l'état 31
    SEMICOLON  décalage et aller à l'état 33


État 28

   13 typeOrVoid: VOID .

    $défaut  réduction par utilisation de la règle 13 (typeOrVoid)


État 29

    8 subroutineDec: funKeyword typeOrVoid . subroutineName L_PARENTHESIS R_PARENTHESIS L_BRACE subroutineBody R_BRACE
    9              | funKeyword typeOrVoid . subroutineName L_PARENTHESIS parameterList R_PARENTHESIS L_BRACE subroutineBody R_BRACE

    ID  décalage et aller à l'état 34

    subroutineName  aller à l'état 35


État 30

   14 typeOrVoid: type .

    $défaut  réduction par utilisation de la règle 14 (typeOrVoid)


État 31

   24 varNameList: varNameList COMMA . varName

    ID  décalage et aller à l'état 24

    varName  aller à l'état 36


État 32

    3 classVarDec: FIELD type varNameList SEMICOLON .

    $défaut  réduction par utilisation de la règle 3 (classVarDec)


État 33

    2 classVarDec: STATIC type varNameList SEMICOLON .

    $défaut  réduction par utilisation de la règle 2 (classVarDec)


État 34

   26 subroutineName: ID .

    $défaut  réduction par utilisation de la règle 26 (subroutineName)


État 35

    8 subroutineDec: funKeyword typeOrVoid subroutineName . L_PARENTHESIS R_PARENTHESIS L_BRACE subroutineBody R_BRACE
    9              | funKeyword typeOrVoid subroutineName . L_PARENTHESIS parameterList R_PARENTHESIS L_BRACE subroutineBody R_BRACE

    L_PARENTHESIS  décalage et aller à l'état 37


État 36

   24 varNameList: varNameList COMMA varName .

    $défaut  réduction par utilisation de la règle 24 (varNameList)


État 37

    8 subroutineDec: funKeyword typeOrVoid subroutineName L_PARENTHESIS . R_PARENTHESIS L_BRACE subroutineBody R_BRACE
    9              | funKeyword typeOrVoid subroutineName L_PARENTHESIS . parameterList R_PARENTHESIS L_BRACE subroutineBody R_BRACE

    INT            décalage et aller à l'état 12
    CHAR           décalage et aller à l'état 13
    BOOLEAN        décalage et aller à l'état 14
    R_PARENTHESIS  décalage et aller à l'état 38
    ID             décalage et aller à l'état 3

    className      aller à l'état 15
    parameterList  aller à l'état 39
    parameter      aller à l'état 40
    type           aller à l'état 41


État 38

    8 subroutineDec: funKeyword typeOrVoid subroutineName L_PARENTHESIS R_PARENTHESIS . L_BRACE subroutineBody R_BRACE

    L_BRACE  décalage et aller à l'état 42


État 39

    9 subroutineDec: funKeyword typeOrVoid subroutineName L_PARENTHESIS parameterList . R_PARENTHESIS L_BRACE subroutineBody R_BRACE
   16 parameterList: parameterList . COMMA parameter

    R_PARENTHESIS  décalage et aller à l'état 43
    COMMA          décalage et aller à l'état 44


État 40

   17 parameterList: parameter .

    $défaut  réduction par utilisation de la règle 17 (parameterList)


État 41

   19 parameter: type . varName

    ID  décalage et aller à l'état 24

    varName  aller à l'état 45


État 42

    8 subroutineDec: funKeyword typeOrVoid subroutineName L_PARENTHESIS R_PARENTHESIS L_BRACE . subroutineBody R_BRACE

    $défaut  réduction par utilisation de la règle 20 (varDec)

    subroutineBody  aller à l'état 46
    varDec          aller à l'état 47


État 43

    9 subroutineDec: funKeyword typeOrVoid subroutineName L_PARENTHESIS parameterList R_PARENTHESIS . L_BRACE subroutineBody R_BRACE

    L_BRACE  décalage et aller à l'état 48


État 44

   16 parameterList: parameterList COMMA . parameter

    INT      décalage et aller à l'état 12
    CHAR     décalage et aller à l'état 13
    BOOLEAN  décalage et aller à l'état 14
    ID       décalage et aller à l'état 3

    className  aller à l'état 15
    parameter  aller à l'état 49
    type       aller à l'état 41


État 45

   19 parameter: type varName .

    $défaut  réduction par utilisation de la règle 19 (parameter)


État 46

    8 subroutineDec: funKeyword typeOrVoid subroutineName L_PARENTHESIS R_PARENTHESIS L_BRACE subroutineBody . R_BRACE

    R_BRACE  décalage et aller à l'état 50


État 47

   18 subroutineBody: varDec . statements
   21 varDec: varDec . varDecSolo

    VAR  décalage et aller à l'état 51

    $défaut  réduction par utilisation de la règle 31 (statements)

    varDecSolo  aller à l'état 52
    statements  aller à l'état 53


État 48

    9 subroutineDec: funKeyword typeOrVoid subroutineName L_PARENTHESIS parameterList R_PARENTHESIS L_BRACE . subroutineBody R_BRACE

    $défaut  réduction par utilisation de la règle 20 (varDec)

    subroutineBody  aller à l'état 54
    varDec          aller à l'état 47


État 49

   16 parameterList: parameterList COMMA parameter .

    $défaut  réduction par utilisation de la règle 16 (parameterList)


État 50

    8 subroutineDec: funKeyword typeOrVoid subroutineName L_PARENTHESIS R_PARENTHESIS L_BRACE subroutineBody R_BRACE .

    $défaut  réduction par utilisation de la règle 8 (subroutineDec)


État 51

   22 varDecSolo: VAR . type varNameList SEMICOLON

    INT      décalage et aller à l'état 12
    CHAR     décalage et aller à l'état 13
    BOOLEAN  décalage et aller à l'état 14
    ID       décalage et aller à l'état 3

    className  aller à l'état 15
    type       aller à l'état 55


État 52

   21 varDec: varDec varDecSolo .

    $défaut  réduction par utilisation de la règle 21 (varDec)


État 53

   18 subroutineBody: varDec statements .
   32 statements: statements . statement

    LET     décalage et aller à l'état 56
    DO      décalage et aller à l'état 57
    IF      décalage et aller à l'état 58
    WHILE   décalage et aller à l'état 59
    RETURN  décalage et aller à l'état 60

    $défaut  réduction par utilisation de la règle 18 (subroutineBody)

    statement        aller à l'état 61
    letStatement     aller à l'état 62
    ifStatement      aller à l'état 63
    whileStatement   aller à l'état 64
    doStatement      aller à l'état 65
    returnStatement  aller à l'état 66


État 54

    9 subroutineDec: funKeyword typeOrVoid subroutineName L_PARENTHESIS parameterList R_PARENTHESIS L_BRACE subroutineBody . R_BRACE

    R_BRACE  décalage et aller à l'état 67


État 55

   22 varDecSolo: VAR type . varNameList SEMICOLON

    ID  décalage et aller à l'état 24

    varNameList  aller à l'état 68
    varName      aller à l'état 26


État 56

   38 letStatement: LET . varName EQUAL expression SEMICOLON
   39             | LET . varName L_BRACKET expression R_BRACKET EQUAL expression SEMICOLON

    ID  décalage et aller à l'état 24

    varName  aller à l'état 69


État 57

   43 doStatement: DO . subroutineCall SEMICOLON

    ID  décalage et aller à l'état 70

    className       aller à l'état 71
    varName         aller à l'état 72
    subroutineName  aller à l'état 73
    subroutineCall  aller à l'état 74


État 58

   40 ifStatement: IF . L_PARENTHESIS expression R_PARENTHESIS L_BRACE statements R_BRACE
   41            | IF . L_PARENTHESIS expression R_PARENTHESIS L_BRACE statements R_BRACE ELSE L_BRACE statements R_BRACE

    L_PARENTHESIS  décalage et aller à l'état 75


État 59

   42 whileStatement: WHILE . L_PARENTHESIS expression R_PARENTHESIS L_BRACE statements R_BRACE

    L_PARENTHESIS  décalage et aller à l'état 76


État 60

   44 returnStatement: RETURN . SEMICOLON
   45                | RETURN . expression SEMICOLON

    TRUE           décalage et aller à l'état 77
    FALSE          décalage et aller à l'état 78
    NULL_          décalage et aller à l'état 79
    THIS           décalage et aller à l'état 80
    L_PARENTHESIS  décalage et aller à l'état 81
    SEMICOLON      décalage et aller à l'état 82
    TILDE          décalage et aller à l'état 83
    ID             décalage et aller à l'état 70
    STRING         décalage et aller à l'état 84
    INTEGER        décalage et aller à l'état 85
    MINUS          décalage et aller à l'état 86

    className        aller à l'état 71
    varName          aller à l'état 87
    subroutineName   aller à l'état 73
    expression       aller à l'état 88
    binop            aller à l'état 89
    term             aller à l'état 90
    subroutineCall   aller à l'état 91
    unaryOp          aller à l'état 92
    keywordConstant  aller à l'état 93


État 61

   32 statements: statements statement .

    $défaut  réduction par utilisation de la règle 32 (statements)


État 62

   33 statement: letStatement .

    $défaut  réduction par utilisation de la règle 33 (statement)


État 63

   34 statement: ifStatement .

    $défaut  réduction par utilisation de la règle 34 (statement)


État 64

   35 statement: whileStatement .

    $défaut  réduction par utilisation de la règle 35 (statement)


État 65

   36 statement: doStatement .

    $défaut  réduction par utilisation de la règle 36 (statement)


État 66

   37 statement: returnStatement .

    $défaut  réduction par utilisation de la règle 37 (statement)


État 67

    9 subroutineDec: funKeyword typeOrVoid subroutineName L_PARENTHESIS parameterList R_PARENTHESIS L_BRACE subroutineBody R_BRACE .

    $défaut  réduction par utilisation de la règle 9 (subroutineDec)


État 68

   22 varDecSolo: VAR type varNameList . SEMICOLON
   24 varNameList: varNameList . COMMA varName

    COMMA      décalage et aller à l'état 31
    SEMICOLON  décalage et aller à l'état 94


État 69

   38 letStatement: LET varName . EQUAL expression SEMICOLON
   39             | LET varName . L_BRACKET expression R_BRACKET EQUAL expression SEMICOLON

    L_BRACKET  décalage et aller à l'état 95
    EQUAL      décalage et aller à l'état 96


État 70

   15 className: ID .
   25 varName: ID .
   26 subroutineName: ID .

    L_PARENTHESIS  réduction par utilisation de la règle 26 (subroutineName)
    PERIOD         réduction par utilisation de la règle 15 (className)
    PERIOD         [réduction par utilisation de la règle 25 (varName)]
    $défaut       réduction par utilisation de la règle 25 (varName)


État 71

   66 subroutineCall: className . PERIOD subroutineName L_PARENTHESIS expressionList R_PARENTHESIS

    PERIOD  décalage et aller à l'état 97


État 72

   67 subroutineCall: varName . PERIOD subroutineName L_PARENTHESIS expressionList R_PARENTHESIS

    PERIOD  décalage et aller à l'état 98


État 73

   65 subroutineCall: subroutineName . L_PARENTHESIS expressionList R_PARENTHESIS

    L_PARENTHESIS  décalage et aller à l'état 99


État 74

   43 doStatement: DO subroutineCall . SEMICOLON

    SEMICOLON  décalage et aller à l'état 100


État 75

   40 ifStatement: IF L_PARENTHESIS . expression R_PARENTHESIS L_BRACE statements R_BRACE
   41            | IF L_PARENTHESIS . expression R_PARENTHESIS L_BRACE statements R_BRACE ELSE L_BRACE statements R_BRACE

    TRUE           décalage et aller à l'état 77
    FALSE          décalage et aller à l'état 78
    NULL_          décalage et aller à l'état 79
    THIS           décalage et aller à l'état 80
    L_PARENTHESIS  décalage et aller à l'état 81
    TILDE          décalage et aller à l'état 83
    ID             décalage et aller à l'état 70
    STRING         décalage et aller à l'état 84
    INTEGER        décalage et aller à l'état 85
    MINUS          décalage et aller à l'état 86

    className        aller à l'état 71
    varName          aller à l'état 87
    subroutineName   aller à l'état 73
    expression       aller à l'état 101
    binop            aller à l'état 89
    term             aller à l'état 90
    subroutineCall   aller à l'état 91
    unaryOp          aller à l'état 92
    keywordConstant  aller à l'état 93


État 76

   42 whileStatement: WHILE L_PARENTHESIS . expression R_PARENTHESIS L_BRACE statements R_BRACE

    TRUE           décalage et aller à l'état 77
    FALSE          décalage et aller à l'état 78
    NULL_          décalage et aller à l'état 79
    THIS           décalage et aller à l'état 80
    L_PARENTHESIS  décalage et aller à l'état 81
    TILDE          décalage et aller à l'état 83
    ID             décalage et aller à l'état 70
    STRING         décalage et aller à l'état 84
    INTEGER        décalage et aller à l'état 85
    MINUS          décalage et aller à l'état 86

    className        aller à l'état 71
    varName          aller à l'état 87
    subroutineName   aller à l'état 73
    expression       aller à l'état 102
    binop            aller à l'état 89
    term             aller à l'état 90
    subroutineCall   aller à l'état 91
    unaryOp          aller à l'état 92
    keywordConstant  aller à l'état 93


État 77

   74 keywordConstant: TRUE .

    $défaut  réduction par utilisation de la règle 74 (keywordConstant)


État 78

   75 keywordConstant: FALSE .

    $défaut  réduction par utilisation de la règle 75 (keywordConstant)


État 79

   76 keywordConstant: NULL_ .

    $défaut  réduction par utilisation de la règle 76 (keywordConstant)


État 80

   77 keywordConstant: THIS .

    $défaut  réduction par utilisation de la règle 77 (keywordConstant)


État 81

   63 term: L_PARENTHESIS . expression R_PARENTHESIS

    TRUE           décalage et aller à l'état 77
    FALSE          décalage et aller à l'état 78
    NULL_          décalage et aller à l'état 79
    THIS           décalage et aller à l'état 80
    L_PARENTHESIS  décalage et aller à l'état 81
    TILDE          décalage et aller à l'état 83
    ID             décalage et aller à l'état 70
    STRING         décalage et aller à l'état 84
    INTEGER        décalage et aller à l'état 85
    MINUS          décalage et aller à l'état 86

    className        aller à l'état 71
    varName          aller à l'état 87
    subroutineName   aller à l'état 73
    expression       aller à l'état 103
    binop            aller à l'état 89
    term             aller à l'état 90
    subroutineCall   aller à l'état 91
    unaryOp          aller à l'état 92
    keywordConstant  aller à l'état 93


État 82

   44 returnStatement: RETURN SEMICOLON .

    $défaut  réduction par utilisation de la règle 44 (returnStatement)


État 83

   73 unaryOp: TILDE .

    $défaut  réduction par utilisation de la règle 73 (unaryOp)


État 84

   58 term: STRING .

    $défaut  réduction par utilisation de la règle 58 (term)


État 85

   57 term: INTEGER .

    $défaut  réduction par utilisation de la règle 57 (term)


État 86

   72 unaryOp: MINUS .

    $défaut  réduction par utilisation de la règle 72 (unaryOp)


État 87

   60 term: varName .
   61     | varName . L_BRACKET expression R_BRACKET
   67 subroutineCall: varName . PERIOD subroutineName L_PARENTHESIS expressionList R_PARENTHESIS

    L_BRACKET  décalage et aller à l'état 104
    PERIOD     décalage et aller à l'état 98

    $défaut  réduction par utilisation de la règle 60 (term)


État 88

   45 returnStatement: RETURN expression . SEMICOLON
   48 binop: expression . PLUS expression
   49      | expression . MINUS expression
   50      | expression . TIMES expression
   51      | expression . DIVIDED expression
   52      | expression . AMPERSAND expression
   53      | expression . PIPE expression
   54      | expression . LT expression
   55      | expression . GT expression
   56      | expression . EQUAL expression

    SEMICOLON  décalage et aller à l'état 105
    AMPERSAND  décalage et aller à l'état 106
    PIPE       décalage et aller à l'état 107
    LT         décalage et aller à l'état 108
    GT         décalage et aller à l'état 109
    EQUAL      décalage et aller à l'état 110
    PLUS       décalage et aller à l'état 111
    MINUS      décalage et aller à l'état 112
    TIMES      décalage et aller à l'état 113
    DIVIDED    décalage et aller à l'état 114


État 89

   47 expression: binop .

    $défaut  réduction par utilisation de la règle 47 (expression)


État 90

   46 expression: term .

    $défaut  réduction par utilisation de la règle 46 (expression)


État 91

   62 term: subroutineCall .

    $défaut  réduction par utilisation de la règle 62 (term)


État 92

   64 term: unaryOp . term

    TRUE           décalage et aller à l'état 77
    FALSE          décalage et aller à l'état 78
    NULL_          décalage et aller à l'état 79
    THIS           décalage et aller à l'état 80
    L_PARENTHESIS  décalage et aller à l'état 81
    TILDE          décalage et aller à l'état 83
    ID             décalage et aller à l'état 70
    STRING         décalage et aller à l'état 84
    INTEGER        décalage et aller à l'état 85
    MINUS          décalage et aller à l'état 86

    className        aller à l'état 71
    varName          aller à l'état 87
    subroutineName   aller à l'état 73
    term             aller à l'état 115
    subroutineCall   aller à l'état 91
    unaryOp          aller à l'état 92
    keywordConstant  aller à l'état 93


État 93

   59 term: keywordConstant .

    $défaut  réduction par utilisation de la règle 59 (term)


État 94

   22 varDecSolo: VAR type varNameList SEMICOLON .

    $défaut  réduction par utilisation de la règle 22 (varDecSolo)


État 95

   39 letStatement: LET varName L_BRACKET . expression R_BRACKET EQUAL expression SEMICOLON

    TRUE           décalage et aller à l'état 77
    FALSE          décalage et aller à l'état 78
    NULL_          décalage et aller à l'état 79
    THIS           décalage et aller à l'état 80
    L_PARENTHESIS  décalage et aller à l'état 81
    TILDE          décalage et aller à l'état 83
    ID             décalage et aller à l'état 70
    STRING         décalage et aller à l'état 84
    INTEGER        décalage et aller à l'état 85
    MINUS          décalage et aller à l'état 86

    className        aller à l'état 71
    varName          aller à l'état 87
    subroutineName   aller à l'état 73
    expression       aller à l'état 116
    binop            aller à l'état 89
    term             aller à l'état 90
    subroutineCall   aller à l'état 91
    unaryOp          aller à l'état 92
    keywordConstant  aller à l'état 93


État 96

   38 letStatement: LET varName EQUAL . expression SEMICOLON

    TRUE           décalage et aller à l'état 77
    FALSE          décalage et aller à l'état 78
    NULL_          décalage et aller à l'état 79
    THIS           décalage et aller à l'état 80
    L_PARENTHESIS  décalage et aller à l'état 81
    TILDE          décalage et aller à l'état 83
    ID             décalage et aller à l'état 70
    STRING         décalage et aller à l'état 84
    INTEGER        décalage et aller à l'état 85
    MINUS          décalage et aller à l'état 86

    className        aller à l'état 71
    varName          aller à l'état 87
    subroutineName   aller à l'état 73
    expression       aller à l'état 117
    binop            aller à l'état 89
    term             aller à l'état 90
    subroutineCall   aller à l'état 91
    unaryOp          aller à l'état 92
    keywordConstant  aller à l'état 93


État 97

   66 subroutineCall: className PERIOD . subroutineName L_PARENTHESIS expressionList R_PARENTHESIS

    ID  décalage et aller à l'état 34

    subroutineName  aller à l'état 118


État 98

   67 subroutineCall: varName PERIOD . subroutineName L_PARENTHESIS expressionList R_PARENTHESIS

    ID  décalage et aller à l'état 34

    subroutineName  aller à l'état 119


État 99

   65 subroutineCall: subroutineName L_PARENTHESIS . expressionList R_PARENTHESIS

    TRUE           décalage et aller à l'état 77
    FALSE          décalage et aller à l'état 78
    NULL_          décalage et aller à l'état 79
    THIS           décalage et aller à l'état 80
    L_PARENTHESIS  décalage et aller à l'état 81
    TILDE          décalage et aller à l'état 83
    ID             décalage et aller à l'état 70
    STRING         décalage et aller à l'état 84
    INTEGER        décalage et aller à l'état 85
    MINUS          décalage et aller à l'état 86

    $défaut  réduction par utilisation de la règle 68 (expressionList)

    className          aller à l'état 71
    varName            aller à l'état 87
    subroutineName     aller à l'état 73
    expression         aller à l'état 120
    binop              aller à l'état 89
    term               aller à l'état 90
    subroutineCall     aller à l'état 91
    expressionList     aller à l'état 121
    expressionListBis  aller à l'état 122
    unaryOp            aller à l'état 92
    keywordConstant    aller à l'état 93


État 100

   43 doStatement: DO subroutineCall SEMICOLON .

    $défaut  réduction par utilisation de la règle 43 (doStatement)


État 101

   40 ifStatement: IF L_PARENTHESIS expression . R_PARENTHESIS L_BRACE statements R_BRACE
   41            | IF L_PARENTHESIS expression . R_PARENTHESIS L_BRACE statements R_BRACE ELSE L_BRACE statements R_BRACE
   48 binop: expression . PLUS expression
   49      | expression . MINUS expression
   50      | expression . TIMES expression
   51      | expression . DIVIDED expression
   52      | expression . AMPERSAND expression
   53      | expression . PIPE expression
   54      | expression . LT expression
   55      | expression . GT expression
   56      | expression . EQUAL expression

    R_PARENTHESIS  décalage et aller à l'état 123
    AMPERSAND      décalage et aller à l'état 106
    PIPE           décalage et aller à l'état 107
    LT             décalage et aller à l'état 108
    GT             décalage et aller à l'état 109
    EQUAL          décalage et aller à l'état 110
    PLUS           décalage et aller à l'état 111
    MINUS          décalage et aller à l'état 112
    TIMES          décalage et aller à l'état 113
    DIVIDED        décalage et aller à l'état 114


État 102

   42 whileStatement: WHILE L_PARENTHESIS expression . R_PARENTHESIS L_BRACE statements R_BRACE
   48 binop: expression . PLUS expression
   49      | expression . MINUS expression
   50      | expression . TIMES expression
   51      | expression . DIVIDED expression
   52      | expression . AMPERSAND expression
   53      | expression . PIPE expression
   54      | expression . LT expression
   55      | expression . GT expression
   56      | expression . EQUAL expression

    R_PARENTHESIS  décalage et aller à l'état 124
    AMPERSAND      décalage et aller à l'état 106
    PIPE           décalage et aller à l'état 107
    LT             décalage et aller à l'état 108
    GT             décalage et aller à l'état 109
    EQUAL          décalage et aller à l'état 110
    PLUS           décalage et aller à l'état 111
    MINUS          décalage et aller à l'état 112
    TIMES          décalage et aller à l'état 113
    DIVIDED        décalage et aller à l'état 114


État 103

   48 binop: expression . PLUS expression
   49      | expression . MINUS expression
   50      | expression . TIMES expression
   51      | expression . DIVIDED expression
   52      | expression . AMPERSAND expression
   53      | expression . PIPE expression
   54      | expression . LT expression
   55      | expression . GT expression
   56      | expression . EQUAL expression
   63 term: L_PARENTHESIS expression . R_PARENTHESIS

    R_PARENTHESIS  décalage et aller à l'état 125
    AMPERSAND      décalage et aller à l'état 106
    PIPE           décalage et aller à l'état 107
    LT             décalage et aller à l'état 108
    GT             décalage et aller à l'état 109
    EQUAL          décalage et aller à l'état 110
    PLUS           décalage et aller à l'état 111
    MINUS          décalage et aller à l'état 112
    TIMES          décalage et aller à l'état 113
    DIVIDED        décalage et aller à l'état 114


État 104

   61 term: varName L_BRACKET . expression R_BRACKET

    TRUE           décalage et aller à l'état 77
    FALSE          décalage et aller à l'état 78
    NULL_          décalage et aller à l'état 79
    THIS           décalage et aller à l'état 80
    L_PARENTHESIS  décalage et aller à l'état 81
    TILDE          décalage et aller à l'état 83
    ID             décalage et aller à l'état 70
    STRING         décalage et aller à l'état 84
    INTEGER        décalage et aller à l'état 85
    MINUS          décalage et aller à l'état 86

    className        aller à l'état 71
    varName          aller à l'état 87
    subroutineName   aller à l'état 73
    expression       aller à l'état 126
    binop            aller à l'état 89
    term             aller à l'état 90
    subroutineCall   aller à l'état 91
    unaryOp          aller à l'état 92
    keywordConstant  aller à l'état 93


État 105

   45 returnStatement: RETURN expression SEMICOLON .

    $défaut  réduction par utilisation de la règle 45 (returnStatement)


État 106

   52 binop: expression AMPERSAND . expression

    TRUE           décalage et aller à l'état 77
    FALSE          décalage et aller à l'état 78
    NULL_          décalage et aller à l'état 79
    THIS           décalage et aller à l'état 80
    L_PARENTHESIS  décalage et aller à l'état 81
    TILDE          décalage et aller à l'état 83
    ID             décalage et aller à l'état 70
    STRING         décalage et aller à l'état 84
    INTEGER        décalage et aller à l'état 85
    MINUS          décalage et aller à l'état 86

    className        aller à l'état 71
    varName          aller à l'état 87
    subroutineName   aller à l'état 73
    expression       aller à l'état 127
    binop            aller à l'état 89
    term             aller à l'état 90
    subroutineCall   aller à l'état 91
    unaryOp          aller à l'état 92
    keywordConstant  aller à l'état 93


État 107

   53 binop: expression PIPE . expression

    TRUE           décalage et aller à l'état 77
    FALSE          décalage et aller à l'état 78
    NULL_          décalage et aller à l'état 79
    THIS           décalage et aller à l'état 80
    L_PARENTHESIS  décalage et aller à l'état 81
    TILDE          décalage et aller à l'état 83
    ID             décalage et aller à l'état 70
    STRING         décalage et aller à l'état 84
    INTEGER        décalage et aller à l'état 85
    MINUS          décalage et aller à l'état 86

    className        aller à l'état 71
    varName          aller à l'état 87
    subroutineName   aller à l'état 73
    expression       aller à l'état 128
    binop            aller à l'état 89
    term             aller à l'état 90
    subroutineCall   aller à l'état 91
    unaryOp          aller à l'état 92
    keywordConstant  aller à l'état 93


État 108

   54 binop: expression LT . expression

    TRUE           décalage et aller à l'état 77
    FALSE          décalage et aller à l'état 78
    NULL_          décalage et aller à l'état 79
    THIS           décalage et aller à l'état 80
    L_PARENTHESIS  décalage et aller à l'état 81
    TILDE          décalage et aller à l'état 83
    ID             décalage et aller à l'état 70
    STRING         décalage et aller à l'état 84
    INTEGER        décalage et aller à l'état 85
    MINUS          décalage et aller à l'état 86

    className        aller à l'état 71
    varName          aller à l'état 87
    subroutineName   aller à l'état 73
    expression       aller à l'état 129
    binop            aller à l'état 89
    term             aller à l'état 90
    subroutineCall   aller à l'état 91
    unaryOp          aller à l'état 92
    keywordConstant  aller à l'état 93


État 109

   55 binop: expression GT . expression

    TRUE           décalage et aller à l'état 77
    FALSE          décalage et aller à l'état 78
    NULL_          décalage et aller à l'état 79
    THIS           décalage et aller à l'état 80
    L_PARENTHESIS  décalage et aller à l'état 81
    TILDE          décalage et aller à l'état 83
    ID             décalage et aller à l'état 70
    STRING         décalage et aller à l'état 84
    INTEGER        décalage et aller à l'état 85
    MINUS          décalage et aller à l'état 86

    className        aller à l'état 71
    varName          aller à l'état 87
    subroutineName   aller à l'état 73
    expression       aller à l'état 130
    binop            aller à l'état 89
    term             aller à l'état 90
    subroutineCall   aller à l'état 91
    unaryOp          aller à l'état 92
    keywordConstant  aller à l'état 93


État 110

   56 binop: expression EQUAL . expression

    TRUE           décalage et aller à l'état 77
    FALSE          décalage et aller à l'état 78
    NULL_          décalage et aller à l'état 79
    THIS           décalage et aller à l'état 80
    L_PARENTHESIS  décalage et aller à l'état 81
    TILDE          décalage et aller à l'état 83
    ID             décalage et aller à l'état 70
    STRING         décalage et aller à l'état 84
    INTEGER        décalage et aller à l'état 85
    MINUS          décalage et aller à l'état 86

    className        aller à l'état 71
    varName          aller à l'état 87
    subroutineName   aller à l'état 73
    expression       aller à l'état 131
    binop            aller à l'état 89
    term             aller à l'état 90
    subroutineCall   aller à l'état 91
    unaryOp          aller à l'état 92
    keywordConstant  aller à l'état 93


État 111

   48 binop: expression PLUS . expression

    TRUE           décalage et aller à l'état 77
    FALSE          décalage et aller à l'état 78
    NULL_          décalage et aller à l'état 79
    THIS           décalage et aller à l'état 80
    L_PARENTHESIS  décalage et aller à l'état 81
    TILDE          décalage et aller à l'état 83
    ID             décalage et aller à l'état 70
    STRING         décalage et aller à l'état 84
    INTEGER        décalage et aller à l'état 85
    MINUS          décalage et aller à l'état 86

    className        aller à l'état 71
    varName          aller à l'état 87
    subroutineName   aller à l'état 73
    expression       aller à l'état 132
    binop            aller à l'état 89
    term             aller à l'état 90
    subroutineCall   aller à l'état 91
    unaryOp          aller à l'état 92
    keywordConstant  aller à l'état 93


État 112

   49 binop: expression MINUS . expression

    TRUE           décalage et aller à l'état 77
    FALSE          décalage et aller à l'état 78
    NULL_          décalage et aller à l'état 79
    THIS           décalage et aller à l'état 80
    L_PARENTHESIS  décalage et aller à l'état 81
    TILDE          décalage et aller à l'état 83
    ID             décalage et aller à l'état 70
    STRING         décalage et aller à l'état 84
    INTEGER        décalage et aller à l'état 85
    MINUS          décalage et aller à l'état 86

    className        aller à l'état 71
    varName          aller à l'état 87
    subroutineName   aller à l'état 73
    expression       aller à l'état 133
    binop            aller à l'état 89
    term             aller à l'état 90
    subroutineCall   aller à l'état 91
    unaryOp          aller à l'état 92
    keywordConstant  aller à l'état 93


État 113

   50 binop: expression TIMES . expression

    TRUE           décalage et aller à l'état 77
    FALSE          décalage et aller à l'état 78
    NULL_          décalage et aller à l'état 79
    THIS           décalage et aller à l'état 80
    L_PARENTHESIS  décalage et aller à l'état 81
    TILDE          décalage et aller à l'état 83
    ID             décalage et aller à l'état 70
    STRING         décalage et aller à l'état 84
    INTEGER        décalage et aller à l'état 85
    MINUS          décalage et aller à l'état 86

    className        aller à l'état 71
    varName          aller à l'état 87
    subroutineName   aller à l'état 73
    expression       aller à l'état 134
    binop            aller à l'état 89
    term             aller à l'état 90
    subroutineCall   aller à l'état 91
    unaryOp          aller à l'état 92
    keywordConstant  aller à l'état 93


État 114

   51 binop: expression DIVIDED . expression

    TRUE           décalage et aller à l'état 77
    FALSE          décalage et aller à l'état 78
    NULL_          décalage et aller à l'état 79
    THIS           décalage et aller à l'état 80
    L_PARENTHESIS  décalage et aller à l'état 81
    TILDE          décalage et aller à l'état 83
    ID             décalage et aller à l'état 70
    STRING         décalage et aller à l'état 84
    INTEGER        décalage et aller à l'état 85
    MINUS          décalage et aller à l'état 86

    className        aller à l'état 71
    varName          aller à l'état 87
    subroutineName   aller à l'état 73
    expression       aller à l'état 135
    binop            aller à l'état 89
    term             aller à l'état 90
    subroutineCall   aller à l'état 91
    unaryOp          aller à l'état 92
    keywordConstant  aller à l'état 93


État 115

   64 term: unaryOp term .

    $défaut  réduction par utilisation de la règle 64 (term)


État 116

   39 letStatement: LET varName L_BRACKET expression . R_BRACKET EQUAL expression SEMICOLON
   48 binop: expression . PLUS expression
   49      | expression . MINUS expression
   50      | expression . TIMES expression
   51      | expression . DIVIDED expression
   52      | expression . AMPERSAND expression
   53      | expression . PIPE expression
   54      | expression . LT expression
   55      | expression . GT expression
   56      | expression . EQUAL expression

    R_BRACKET  décalage et aller à l'état 136
    AMPERSAND  décalage et aller à l'état 106
    PIPE       décalage et aller à l'état 107
    LT         décalage et aller à l'état 108
    GT         décalage et aller à l'état 109
    EQUAL      décalage et aller à l'état 110
    PLUS       décalage et aller à l'état 111
    MINUS      décalage et aller à l'état 112
    TIMES      décalage et aller à l'état 113
    DIVIDED    décalage et aller à l'état 114


État 117

   38 letStatement: LET varName EQUAL expression . SEMICOLON
   48 binop: expression . PLUS expression
   49      | expression . MINUS expression
   50      | expression . TIMES expression
   51      | expression . DIVIDED expression
   52      | expression . AMPERSAND expression
   53      | expression . PIPE expression
   54      | expression . LT expression
   55      | expression . GT expression
   56      | expression . EQUAL expression

    SEMICOLON  décalage et aller à l'état 137
    AMPERSAND  décalage et aller à l'état 106
    PIPE       décalage et aller à l'état 107
    LT         décalage et aller à l'état 108
    GT         décalage et aller à l'état 109
    EQUAL      décalage et aller à l'état 110
    PLUS       décalage et aller à l'état 111
    MINUS      décalage et aller à l'état 112
    TIMES      décalage et aller à l'état 113
    DIVIDED    décalage et aller à l'état 114


État 118

   66 subroutineCall: className PERIOD subroutineName . L_PARENTHESIS expressionList R_PARENTHESIS

    L_PARENTHESIS  décalage et aller à l'état 138


État 119

   67 subroutineCall: varName PERIOD subroutineName . L_PARENTHESIS expressionList R_PARENTHESIS

    L_PARENTHESIS  décalage et aller à l'état 139


État 120

   48 binop: expression . PLUS expression
   49      | expression . MINUS expression
   50      | expression . TIMES expression
   51      | expression . DIVIDED expression
   52      | expression . AMPERSAND expression
   53      | expression . PIPE expression
   54      | expression . LT expression
   55      | expression . GT expression
   56      | expression . EQUAL expression
   70 expressionListBis: expression .

    AMPERSAND  décalage et aller à l'état 106
    PIPE       décalage et aller à l'état 107
    LT         décalage et aller à l'état 108
    GT         décalage et aller à l'état 109
    EQUAL      décalage et aller à l'état 110
    PLUS       décalage et aller à l'état 111
    MINUS      décalage et aller à l'état 112
    TIMES      décalage et aller à l'état 113
    DIVIDED    décalage et aller à l'état 114

    $défaut  réduction par utilisation de la règle 70 (expressionListBis)


État 121

   65 subroutineCall: subroutineName L_PARENTHESIS expressionList . R_PARENTHESIS

    R_PARENTHESIS  décalage et aller à l'état 140


État 122

   69 expressionList: expressionListBis .
   71 expressionListBis: expressionListBis . COMMA expression

    COMMA  décalage et aller à l'état 141

    $défaut  réduction par utilisation de la règle 69 (expressionList)


État 123

   40 ifStatement: IF L_PARENTHESIS expression R_PARENTHESIS . L_BRACE statements R_BRACE
   41            | IF L_PARENTHESIS expression R_PARENTHESIS . L_BRACE statements R_BRACE ELSE L_BRACE statements R_BRACE

    L_BRACE  décalage et aller à l'état 142


État 124

   42 whileStatement: WHILE L_PARENTHESIS expression R_PARENTHESIS . L_BRACE statements R_BRACE

    L_BRACE  décalage et aller à l'état 143


État 125

   63 term: L_PARENTHESIS expression R_PARENTHESIS .

    $défaut  réduction par utilisation de la règle 63 (term)


État 126

   48 binop: expression . PLUS expression
   49      | expression . MINUS expression
   50      | expression . TIMES expression
   51      | expression . DIVIDED expression
   52      | expression . AMPERSAND expression
   53      | expression . PIPE expression
   54      | expression . LT expression
   55      | expression . GT expression
   56      | expression . EQUAL expression
   61 term: varName L_BRACKET expression . R_BRACKET

    R_BRACKET  décalage et aller à l'état 144
    AMPERSAND  décalage et aller à l'état 106
    PIPE       décalage et aller à l'état 107
    LT         décalage et aller à l'état 108
    GT         décalage et aller à l'état 109
    EQUAL      décalage et aller à l'état 110
    PLUS       décalage et aller à l'état 111
    MINUS      décalage et aller à l'état 112
    TIMES      décalage et aller à l'état 113
    DIVIDED    décalage et aller à l'état 114


État 127

   48 binop: expression . PLUS expression
   49      | expression . MINUS expression
   50      | expression . TIMES expression
   51      | expression . DIVIDED expression
   52      | expression . AMPERSAND expression
   52      | expression AMPERSAND expression .
   53      | expression . PIPE expression
   54      | expression . LT expression
   55      | expression . GT expression
   56      | expression . EQUAL expression

    AMPERSAND  décalage et aller à l'état 106
    PIPE       décalage et aller à l'état 107
    LT         décalage et aller à l'état 108
    GT         décalage et aller à l'état 109
    EQUAL      décalage et aller à l'état 110
    PLUS       décalage et aller à l'état 111
    MINUS      décalage et aller à l'état 112
    TIMES      décalage et aller à l'état 113
    DIVIDED    décalage et aller à l'état 114

    AMPERSAND  [réduction par utilisation de la règle 52 (binop)]
    PIPE       [réduction par utilisation de la règle 52 (binop)]
    LT         [réduction par utilisation de la règle 52 (binop)]
    GT         [réduction par utilisation de la règle 52 (binop)]
    EQUAL      [réduction par utilisation de la règle 52 (binop)]
    PLUS       [réduction par utilisation de la règle 52 (binop)]
    MINUS      [réduction par utilisation de la règle 52 (binop)]
    TIMES      [réduction par utilisation de la règle 52 (binop)]
    DIVIDED    [réduction par utilisation de la règle 52 (binop)]
    $défaut   réduction par utilisation de la règle 52 (binop)


État 128

   48 binop: expression . PLUS expression
   49      | expression . MINUS expression
   50      | expression . TIMES expression
   51      | expression . DIVIDED expression
   52      | expression . AMPERSAND expression
   53      | expression . PIPE expression
   53      | expression PIPE expression .
   54      | expression . LT expression
   55      | expression . GT expression
   56      | expression . EQUAL expression

    AMPERSAND  décalage et aller à l'état 106
    PIPE       décalage et aller à l'état 107
    LT         décalage et aller à l'état 108
    GT         décalage et aller à l'état 109
    EQUAL      décalage et aller à l'état 110
    PLUS       décalage et aller à l'état 111
    MINUS      décalage et aller à l'état 112
    TIMES      décalage et aller à l'état 113
    DIVIDED    décalage et aller à l'état 114

    AMPERSAND  [réduction par utilisation de la règle 53 (binop)]
    PIPE       [réduction par utilisation de la règle 53 (binop)]
    LT         [réduction par utilisation de la règle 53 (binop)]
    GT         [réduction par utilisation de la règle 53 (binop)]
    EQUAL      [réduction par utilisation de la règle 53 (binop)]
    PLUS       [réduction par utilisation de la règle 53 (binop)]
    MINUS      [réduction par utilisation de la règle 53 (binop)]
    TIMES      [réduction par utilisation de la règle 53 (binop)]
    DIVIDED    [réduction par utilisation de la règle 53 (binop)]
    $défaut   réduction par utilisation de la règle 53 (binop)


État 129

   48 binop: expression . PLUS expression
   49      | expression . MINUS expression
   50      | expression . TIMES expression
   51      | expression . DIVIDED expression
   52      | expression . AMPERSAND expression
   53      | expression . PIPE expression
   54      | expression . LT expression
   54      | expression LT expression .
   55      | expression . GT expression
   56      | expression . EQUAL expression

    AMPERSAND  décalage et aller à l'état 106
    PIPE       décalage et aller à l'état 107
    LT         décalage et aller à l'état 108
    GT         décalage et aller à l'état 109
    EQUAL      décalage et aller à l'état 110
    PLUS       décalage et aller à l'état 111
    MINUS      décalage et aller à l'état 112
    TIMES      décalage et aller à l'état 113
    DIVIDED    décalage et aller à l'état 114

    AMPERSAND  [réduction par utilisation de la règle 54 (binop)]
    PIPE       [réduction par utilisation de la règle 54 (binop)]
    LT         [réduction par utilisation de la règle 54 (binop)]
    GT         [réduction par utilisation de la règle 54 (binop)]
    EQUAL      [réduction par utilisation de la règle 54 (binop)]
    PLUS       [réduction par utilisation de la règle 54 (binop)]
    MINUS      [réduction par utilisation de la règle 54 (binop)]
    TIMES      [réduction par utilisation de la règle 54 (binop)]
    DIVIDED    [réduction par utilisation de la règle 54 (binop)]
    $défaut   réduction par utilisation de la règle 54 (binop)


État 130

   48 binop: expression . PLUS expression
   49      | expression . MINUS expression
   50      | expression . TIMES expression
   51      | expression . DIVIDED expression
   52      | expression . AMPERSAND expression
   53      | expression . PIPE expression
   54      | expression . LT expression
   55      | expression . GT expression
   55      | expression GT expression .
   56      | expression . EQUAL expression

    AMPERSAND  décalage et aller à l'état 106
    PIPE       décalage et aller à l'état 107
    LT         décalage et aller à l'état 108
    GT         décalage et aller à l'état 109
    EQUAL      décalage et aller à l'état 110
    PLUS       décalage et aller à l'état 111
    MINUS      décalage et aller à l'état 112
    TIMES      décalage et aller à l'état 113
    DIVIDED    décalage et aller à l'état 114

    AMPERSAND  [réduction par utilisation de la règle 55 (binop)]
    PIPE       [réduction par utilisation de la règle 55 (binop)]
    LT         [réduction par utilisation de la règle 55 (binop)]
    GT         [réduction par utilisation de la règle 55 (binop)]
    EQUAL      [réduction par utilisation de la règle 55 (binop)]
    PLUS       [réduction par utilisation de la règle 55 (binop)]
    MINUS      [réduction par utilisation de la règle 55 (binop)]
    TIMES      [réduction par utilisation de la règle 55 (binop)]
    DIVIDED    [réduction par utilisation de la règle 55 (binop)]
    $défaut   réduction par utilisation de la règle 55 (binop)


État 131

   48 binop: expression . PLUS expression
   49      | expression . MINUS expression
   50      | expression . TIMES expression
   51      | expression . DIVIDED expression
   52      | expression . AMPERSAND expression
   53      | expression . PIPE expression
   54      | expression . LT expression
   55      | expression . GT expression
   56      | expression . EQUAL expression
   56      | expression EQUAL expression .

    AMPERSAND  décalage et aller à l'état 106
    PIPE       décalage et aller à l'état 107
    LT         décalage et aller à l'état 108
    GT         décalage et aller à l'état 109
    EQUAL      décalage et aller à l'état 110
    PLUS       décalage et aller à l'état 111
    MINUS      décalage et aller à l'état 112
    TIMES      décalage et aller à l'état 113
    DIVIDED    décalage et aller à l'état 114

    AMPERSAND  [réduction par utilisation de la règle 56 (binop)]
    PIPE       [réduction par utilisation de la règle 56 (binop)]
    LT         [réduction par utilisation de la règle 56 (binop)]
    GT         [réduction par utilisation de la règle 56 (binop)]
    EQUAL      [réduction par utilisation de la règle 56 (binop)]
    PLUS       [réduction par utilisation de la règle 56 (binop)]
    MINUS      [réduction par utilisation de la règle 56 (binop)]
    TIMES      [réduction par utilisation de la règle 56 (binop)]
    DIVIDED    [réduction par utilisation de la règle 56 (binop)]
    $défaut   réduction par utilisation de la règle 56 (binop)


État 132

   48 binop: expression . PLUS expression
   48      | expression PLUS expression .
   49      | expression . MINUS expression
   50      | expression . TIMES expression
   51      | expression . DIVIDED expression
   52      | expression . AMPERSAND expression
   53      | expression . PIPE expression
   54      | expression . LT expression
   55      | expression . GT expression
   56      | expression . EQUAL expression

    AMPERSAND  décalage et aller à l'état 106
    PIPE       décalage et aller à l'état 107
    LT         décalage et aller à l'état 108
    GT         décalage et aller à l'état 109
    EQUAL      décalage et aller à l'état 110

    AMPERSAND  [réduction par utilisation de la règle 48 (binop)]
    PIPE       [réduction par utilisation de la règle 48 (binop)]
    LT         [réduction par utilisation de la règle 48 (binop)]
    GT         [réduction par utilisation de la règle 48 (binop)]
    EQUAL      [réduction par utilisation de la règle 48 (binop)]
    $défaut   réduction par utilisation de la règle 48 (binop)


État 133

   48 binop: expression . PLUS expression
   49      | expression . MINUS expression
   49      | expression MINUS expression .
   50      | expression . TIMES expression
   51      | expression . DIVIDED expression
   52      | expression . AMPERSAND expression
   53      | expression . PIPE expression
   54      | expression . LT expression
   55      | expression . GT expression
   56      | expression . EQUAL expression

    AMPERSAND  décalage et aller à l'état 106
    PIPE       décalage et aller à l'état 107
    LT         décalage et aller à l'état 108
    GT         décalage et aller à l'état 109
    EQUAL      décalage et aller à l'état 110

    AMPERSAND  [réduction par utilisation de la règle 49 (binop)]
    PIPE       [réduction par utilisation de la règle 49 (binop)]
    LT         [réduction par utilisation de la règle 49 (binop)]
    GT         [réduction par utilisation de la règle 49 (binop)]
    EQUAL      [réduction par utilisation de la règle 49 (binop)]
    $défaut   réduction par utilisation de la règle 49 (binop)


État 134

   48 binop: expression . PLUS expression
   49      | expression . MINUS expression
   50      | expression . TIMES expression
   50      | expression TIMES expression .
   51      | expression . DIVIDED expression
   52      | expression . AMPERSAND expression
   53      | expression . PIPE expression
   54      | expression . LT expression
   55      | expression . GT expression
   56      | expression . EQUAL expression

    AMPERSAND  décalage et aller à l'état 106
    PIPE       décalage et aller à l'état 107
    LT         décalage et aller à l'état 108
    GT         décalage et aller à l'état 109
    EQUAL      décalage et aller à l'état 110

    AMPERSAND  [réduction par utilisation de la règle 50 (binop)]
    PIPE       [réduction par utilisation de la règle 50 (binop)]
    LT         [réduction par utilisation de la règle 50 (binop)]
    GT         [réduction par utilisation de la règle 50 (binop)]
    EQUAL      [réduction par utilisation de la règle 50 (binop)]
    $défaut   réduction par utilisation de la règle 50 (binop)


État 135

   48 binop: expression . PLUS expression
   49      | expression . MINUS expression
   50      | expression . TIMES expression
   51      | expression . DIVIDED expression
   51      | expression DIVIDED expression .
   52      | expression . AMPERSAND expression
   53      | expression . PIPE expression
   54      | expression . LT expression
   55      | expression . GT expression
   56      | expression . EQUAL expression

    AMPERSAND  décalage et aller à l'état 106
    PIPE       décalage et aller à l'état 107
    LT         décalage et aller à l'état 108
    GT         décalage et aller à l'état 109
    EQUAL      décalage et aller à l'état 110

    AMPERSAND  [réduction par utilisation de la règle 51 (binop)]
    PIPE       [réduction par utilisation de la règle 51 (binop)]
    LT         [réduction par utilisation de la règle 51 (binop)]
    GT         [réduction par utilisation de la règle 51 (binop)]
    EQUAL      [réduction par utilisation de la règle 51 (binop)]
    $défaut   réduction par utilisation de la règle 51 (binop)


État 136

   39 letStatement: LET varName L_BRACKET expression R_BRACKET . EQUAL expression SEMICOLON

    EQUAL  décalage et aller à l'état 145


État 137

   38 letStatement: LET varName EQUAL expression SEMICOLON .

    $défaut  réduction par utilisation de la règle 38 (letStatement)


État 138

   66 subroutineCall: className PERIOD subroutineName L_PARENTHESIS . expressionList R_PARENTHESIS

    TRUE           décalage et aller à l'état 77
    FALSE          décalage et aller à l'état 78
    NULL_          décalage et aller à l'état 79
    THIS           décalage et aller à l'état 80
    L_PARENTHESIS  décalage et aller à l'état 81
    TILDE          décalage et aller à l'état 83
    ID             décalage et aller à l'état 70
    STRING         décalage et aller à l'état 84
    INTEGER        décalage et aller à l'état 85
    MINUS          décalage et aller à l'état 86

    $défaut  réduction par utilisation de la règle 68 (expressionList)

    className          aller à l'état 71
    varName            aller à l'état 87
    subroutineName     aller à l'état 73
    expression         aller à l'état 120
    binop              aller à l'état 89
    term               aller à l'état 90
    subroutineCall     aller à l'état 91
    expressionList     aller à l'état 146
    expressionListBis  aller à l'état 122
    unaryOp            aller à l'état 92
    keywordConstant    aller à l'état 93


État 139

   67 subroutineCall: varName PERIOD subroutineName L_PARENTHESIS . expressionList R_PARENTHESIS

    TRUE           décalage et aller à l'état 77
    FALSE          décalage et aller à l'état 78
    NULL_          décalage et aller à l'état 79
    THIS           décalage et aller à l'état 80
    L_PARENTHESIS  décalage et aller à l'état 81
    TILDE          décalage et aller à l'état 83
    ID             décalage et aller à l'état 70
    STRING         décalage et aller à l'état 84
    INTEGER        décalage et aller à l'état 85
    MINUS          décalage et aller à l'état 86

    $défaut  réduction par utilisation de la règle 68 (expressionList)

    className          aller à l'état 71
    varName            aller à l'état 87
    subroutineName     aller à l'état 73
    expression         aller à l'état 120
    binop              aller à l'état 89
    term               aller à l'état 90
    subroutineCall     aller à l'état 91
    expressionList     aller à l'état 147
    expressionListBis  aller à l'état 122
    unaryOp            aller à l'état 92
    keywordConstant    aller à l'état 93


État 140

   65 subroutineCall: subroutineName L_PARENTHESIS expressionList R_PARENTHESIS .

    $défaut  réduction par utilisation de la règle 65 (subroutineCall)


État 141

   71 expressionListBis: expressionListBis COMMA . expression

    TRUE           décalage et aller à l'état 77
    FALSE          décalage et aller à l'état 78
    NULL_          décalage et aller à l'état 79
    THIS           décalage et aller à l'état 80
    L_PARENTHESIS  décalage et aller à l'état 81
    TILDE          décalage et aller à l'état 83
    ID             décalage et aller à l'état 70
    STRING         décalage et aller à l'état 84
    INTEGER        décalage et aller à l'état 85
    MINUS          décalage et aller à l'état 86

    className        aller à l'état 71
    varName          aller à l'état 87
    subroutineName   aller à l'état 73
    expression       aller à l'état 148
    binop            aller à l'état 89
    term             aller à l'état 90
    subroutineCall   aller à l'état 91
    unaryOp          aller à l'état 92
    keywordConstant  aller à l'état 93


État 142

   40 ifStatement: IF L_PARENTHESIS expression R_PARENTHESIS L_BRACE . statements R_BRACE
   41            | IF L_PARENTHESIS expression R_PARENTHESIS L_BRACE . statements R_BRACE ELSE L_BRACE statements R_BRACE

    $défaut  réduction par utilisation de la règle 31 (statements)

    statements  aller à l'état 149


État 143

   42 whileStatement: WHILE L_PARENTHESIS expression R_PARENTHESIS L_BRACE . statements R_BRACE

    $défaut  réduction par utilisation de la règle 31 (statements)

    statements  aller à l'état 150


État 144

   61 term: varName L_BRACKET expression R_BRACKET .

    $défaut  réduction par utilisation de la règle 61 (term)


État 145

   39 letStatement: LET varName L_BRACKET expression R_BRACKET EQUAL . expression SEMICOLON

    TRUE           décalage et aller à l'état 77
    FALSE          décalage et aller à l'état 78
    NULL_          décalage et aller à l'état 79
    THIS           décalage et aller à l'état 80
    L_PARENTHESIS  décalage et aller à l'état 81
    TILDE          décalage et aller à l'état 83
    ID             décalage et aller à l'état 70
    STRING         décalage et aller à l'état 84
    INTEGER        décalage et aller à l'état 85
    MINUS          décalage et aller à l'état 86

    className        aller à l'état 71
    varName          aller à l'état 87
    subroutineName   aller à l'état 73
    expression       aller à l'état 151
    binop            aller à l'état 89
    term             aller à l'état 90
    subroutineCall   aller à l'état 91
    unaryOp          aller à l'état 92
    keywordConstant  aller à l'état 93


État 146

   66 subroutineCall: className PERIOD subroutineName L_PARENTHESIS expressionList . R_PARENTHESIS

    R_PARENTHESIS  décalage et aller à l'état 152


État 147

   67 subroutineCall: varName PERIOD subroutineName L_PARENTHESIS expressionList . R_PARENTHESIS

    R_PARENTHESIS  décalage et aller à l'état 153


État 148

   48 binop: expression . PLUS expression
   49      | expression . MINUS expression
   50      | expression . TIMES expression
   51      | expression . DIVIDED expression
   52      | expression . AMPERSAND expression
   53      | expression . PIPE expression
   54      | expression . LT expression
   55      | expression . GT expression
   56      | expression . EQUAL expression
   71 expressionListBis: expressionListBis COMMA expression .

    AMPERSAND  décalage et aller à l'état 106
    PIPE       décalage et aller à l'état 107
    LT         décalage et aller à l'état 108
    GT         décalage et aller à l'état 109
    EQUAL      décalage et aller à l'état 110
    PLUS       décalage et aller à l'état 111
    MINUS      décalage et aller à l'état 112
    TIMES      décalage et aller à l'état 113
    DIVIDED    décalage et aller à l'état 114

    $défaut  réduction par utilisation de la règle 71 (expressionListBis)


État 149

   32 statements: statements . statement
   40 ifStatement: IF L_PARENTHESIS expression R_PARENTHESIS L_BRACE statements . R_BRACE
   41            | IF L_PARENTHESIS expression R_PARENTHESIS L_BRACE statements . R_BRACE ELSE L_BRACE statements R_BRACE

    LET      décalage et aller à l'état 56
    DO       décalage et aller à l'état 57
    IF       décalage et aller à l'état 58
    WHILE    décalage et aller à l'état 59
    RETURN   décalage et aller à l'état 60
    R_BRACE  décalage et aller à l'état 154

    statement        aller à l'état 61
    letStatement     aller à l'état 62
    ifStatement      aller à l'état 63
    whileStatement   aller à l'état 64
    doStatement      aller à l'état 65
    returnStatement  aller à l'état 66


État 150

   32 statements: statements . statement
   42 whileStatement: WHILE L_PARENTHESIS expression R_PARENTHESIS L_BRACE statements . R_BRACE

    LET      décalage et aller à l'état 56
    DO       décalage et aller à l'état 57
    IF       décalage et aller à l'état 58
    WHILE    décalage et aller à l'état 59
    RETURN   décalage et aller à l'état 60
    R_BRACE  décalage et aller à l'état 155

    statement        aller à l'état 61
    letStatement     aller à l'état 62
    ifStatement      aller à l'état 63
    whileStatement   aller à l'état 64
    doStatement      aller à l'état 65
    returnStatement  aller à l'état 66


État 151

   39 letStatement: LET varName L_BRACKET expression R_BRACKET EQUAL expression . SEMICOLON
   48 binop: expression . PLUS expression
   49      | expression . MINUS expression
   50      | expression . TIMES expression
   51      | expression . DIVIDED expression
   52      | expression . AMPERSAND expression
   53      | expression . PIPE expression
   54      | expression . LT expression
   55      | expression . GT expression
   56      | expression . EQUAL expression

    SEMICOLON  décalage et aller à l'état 156
    AMPERSAND  décalage et aller à l'état 106
    PIPE       décalage et aller à l'état 107
    LT         décalage et aller à l'état 108
    GT         décalage et aller à l'état 109
    EQUAL      décalage et aller à l'état 110
    PLUS       décalage et aller à l'état 111
    MINUS      décalage et aller à l'état 112
    TIMES      décalage et aller à l'état 113
    DIVIDED    décalage et aller à l'état 114


État 152

   66 subroutineCall: className PERIOD subroutineName L_PARENTHESIS expressionList R_PARENTHESIS .

    $défaut  réduction par utilisation de la règle 66 (subroutineCall)


État 153

   67 subroutineCall: varName PERIOD subroutineName L_PARENTHESIS expressionList R_PARENTHESIS .

    $défaut  réduction par utilisation de la règle 67 (subroutineCall)


État 154

   40 ifStatement: IF L_PARENTHESIS expression R_PARENTHESIS L_BRACE statements R_BRACE .
   41            | IF L_PARENTHESIS expression R_PARENTHESIS L_BRACE statements R_BRACE . ELSE L_BRACE statements R_BRACE

    ELSE  décalage et aller à l'état 157

    $défaut  réduction par utilisation de la règle 40 (ifStatement)


État 155

   42 whileStatement: WHILE L_PARENTHESIS expression R_PARENTHESIS L_BRACE statements R_BRACE .

    $défaut  réduction par utilisation de la règle 42 (whileStatement)


État 156

   39 letStatement: LET varName L_BRACKET expression R_BRACKET EQUAL expression SEMICOLON .

    $défaut  réduction par utilisation de la règle 39 (letStatement)


État 157

   41 ifStatement: IF L_PARENTHESIS expression R_PARENTHESIS L_BRACE statements R_BRACE ELSE . L_BRACE statements R_BRACE

    L_BRACE  décalage et aller à l'état 158


État 158

   41 ifStatement: IF L_PARENTHESIS expression R_PARENTHESIS L_BRACE statements R_BRACE ELSE L_BRACE . statements R_BRACE

    $défaut  réduction par utilisation de la règle 31 (statements)

    statements  aller à l'état 159


État 159

   32 statements: statements . statement
   41 ifStatement: IF L_PARENTHESIS expression R_PARENTHESIS L_BRACE statements R_BRACE ELSE L_BRACE statements . R_BRACE

    LET      décalage et aller à l'état 56
    DO       décalage et aller à l'état 57
    IF       décalage et aller à l'état 58
    WHILE    décalage et aller à l'état 59
    RETURN   décalage et aller à l'état 60
    R_BRACE  décalage et aller à l'état 160

    statement        aller à l'état 61
    letStatement     aller à l'état 62
    ifStatement      aller à l'état 63
    whileStatement   aller à l'état 64
    doStatement      aller à l'état 65
    returnStatement  aller à l'état 66


État 160

   41 ifStatement: IF L_PARENTHESIS expression R_PARENTHESIS L_BRACE statements R_BRACE ELSE L_BRACE statements R_BRACE .

    $défaut  réduction par utilisation de la règle 41 (ifStatement)
